{"count":200,"next":"https://cryptopanic.com/api/v1/posts/?auth_token=43382aa9b285b15dc486b21e510501bf14c69b1e&page=2","previous":null,"results":[{"kind":"news","domain":"beincrypto.com","source":{"title":"BeInCrypto","region":"en","domain":"beincrypto.com","path":null},"title":"EthereumPOW Developers Reportedly Disable Difficulty Bomb as Merge Date Draws Closer","published_at":"2022-08-14T10:13:47Z","slug":"EthereumPOW-Developers-Reportedly-Disable-Difficulty-Bomb-as-Merge-Date-Draws-Closer","currencies":[{"code":"ETH","title":"Ethereum","slug":"ethereum","url":"https://cryptopanic.com/news/ethereum/"}],"id":16048680,"url":"https://cryptopanic.com/news/16048680/EthereumPOW-Developers-Reportedly-Disable-Difficulty-Bomb-as-Merge-Date-Draws-Closer","created_at":"2022-08-14T10:13:47Z","votes":{"negative":0,"positive":0,"important":0,"liked":0,"disliked":0,"lol":0,"toxic":0,"saved":0,"comments":0}},{"kind":"news","domain":"cointelegraph.com","votes":{"negative":0,"positive":1,"important":0,"liked":1,"disliked":0,"lol":0,"toxic":0,"saved":0,"comments":0},"source":{"title":"CoinTelegraph","region":"en","domain":"cointelegraph.com","path":null},"title":"Bitcoin hits $25K as bearish voices call BTC price 'double top'","published_at":"2022-08-14T10:01:11Z","slug":"Bitcoin-hits-25K-as-bearish-voices-call-BTC-price-double-top","currencies":[{"code":"BTC","title":"Bitcoin","slug":"bitcoin","url":"https://cryptopanic.com/news/bitcoin/"},{"code":"ETH","title":"Ethereum","slug":"ethereum","url":"https://cryptopanic.com/news/ethereum/"},{"code":"DASH","title":"Dash","slug":"dash","url":"https://cryptopanic.com/news/dash/"}],"id":16048664,"url":"https://cryptopanic.com/news/16048664/Bitcoin-hits-25K-as-bearish-voices-call-BTC-price-double-top","created_at":"2022-08-14T10:01:11Z"},{"kind":"media","domain":"youtube.com","source":{"title":"Bitcoin Magazine","region":"en","domain":"youtube.com","path":null},"title":"A New Layer Of Bitcoin Privacy","published_at":"2022-08-14T10:00:04Z","slug":"A-New-Layer-Of-Bitcoin-Privacy","currencies":[{"code":"BTC","title":"Bitcoin","slug":"bitcoin","url":"https://cryptopanic.com/news/bitcoin/"}],"id":16048678,"url":"https://cryptopanic.com/news/16048678/A-New-Layer-Of-Bitcoin-Privacy","created_at":"2022-08-14T10:00:04Z","votes":{"negative":0,"positive":0,"important":0,"liked":0,"disliked":0,"lol":0,"toxic":0,"saved":0,"comments":0}},{"kind":"news","domain":"bitcoinmagazine.com","source":{"title":"Bitcoin Magazine","region":"en","domain":"bitcoinmagazine.com","path":null},"title":"Why Bitcoin Politics Should Be Approached At The Local Level","published_at":"2022-08-14T10:00:00Z","slug":"Why-Bitcoin-Politics-Should-Be-Approached-At-The-Local-Level","currencies":[{"code":"BTC","title":"Bitcoin","slug":"bitcoin","url":"https://cryptopanic.com/news/bitcoin/"}],"id":16048662,"url":"https://cryptopanic.com/news/16048662/Why-Bitcoin-Politics-Should-Be-Approached-At-The-Local-Level","created_at":"2022-08-14T10:00:00Z","votes":{"negative":0,"positive":0,"important":0,"liked":0,"disliked":0,"lol":0,"toxic":0,"saved":0,"comments":0}},{"kind":"news","domain":"cryptonews.com","source":{"title":"Cryptonews","region":"en","domain":"cryptonews.com","path":null},"title":"Why Celsius and Voyager Were More Like Uninsured, Quasi-Banks","published_at":"2022-08-14T10:00:00Z","slug":"Why-Celsius-and-Voyager-Were-More-Like-Uninsured-Quasi-Banks","currencies":[{"code":"BTC","title":"Bitcoin","slug":"bitcoin","url":"https://cryptopanic.com/news/bitcoin/"}],"id":16048665,"url":"https://cryptopanic.com/news/16048665/Why-Celsius-and-Voyager-Were-More-Like-Uninsured-Quasi-Banks","created_at":"2022-08-14T10:00:00Z","votes":{"negative":0,"positive":0,"important":0,"liked":0,"disliked":0,"lol":0,"toxic":0,"saved":0,"comments":0}},{"kind":"media","domain":"youtube.com","source":{"title":"The Modern Investor","region":"en","domain":"youtube.com","path":null},"title":"MAJOR Crypto Adoption + NO WAY This Is Real! & Binance + Mastercard","published_at":"2022-08-14T09:45:02Z","slug":"MAJOR-Crypto-Adoption-NO-WAY-This-Is-Real-Binance-Mastercard","id":16048654,"url":"https://cryptopanic.com/news/16048654/MAJOR-Crypto-Adoption-NO-WAY-This-Is-Real-Binance-Mastercard","created_at":"2022-08-14T09:45:02Z","votes":{"negative":0,"positive":0,"important":0,"liked":0,"disliked":0,"lol":0,"toxic":0,"saved":0,"comments":0}},{"kind":"news","domain":"cryptoglobe.com","votes":{"negative":2,"positive":1,"important":0,"liked":1,"disliked":2,"lol":1,"toxic":0,"saved":0,"comments":0},"source":{"title":"CryptoGlobe","region":"en","domain":"cryptoglobe.com","path":null},"title":"‘ADA Whale’ Explains What ‘A Bet on Cardano’ Means","published_at":"2022-08-14T09:38:13Z","slug":"ADA-Whale-Explains-What-A-Bet-on-Cardano-Means","currencies":[{"code":"ADA","title":"Cardano","slug":"cardano","url":"https://cryptopanic.com/news/cardano/"}],"id":16048555,"url":"https://cryptopanic.com/news/16048555/ADA-Whale-Explains-What-A-Bet-on-Cardano-Means","created_at":"2022-08-14T09:38:13Z"},{"kind":"news","domain":"dailyhodl.com","votes":{"negative":0,"positive":1,"important":1,"liked":1,"disliked":0,"lol":2,"toxic":0,"saved":0,"comments":0},"source":{"title":"The Daily Hodl","region":"en","domain":"dailyhodl.com","path":null},"title":"Former Goldman Sachs Executive Makes High Conviction Call for Crypto Bottom Amid Shifting Macro Backdrop","published_at":"2022-08-14T09:15:28Z","slug":"Former-Goldman-Sachs-Executive-Makes-High-Conviction-Call-for-Crypto-Bottom-Amid-Shifting-Macro-Backdrop","currencies":[{"code":"BTC","title":"Bitcoin","slug":"bitcoin","url":"https://cryptopanic.com/news/bitcoin/"}],"id":16048138,"url":"https://cryptopanic.com/news/16048138/Former-Goldman-Sachs-Executive-Makes-High-Conviction-Call-for-Crypto-Bottom-Amid-Shifting-Macro-Backdrop","created_at":"2022-08-14T09:15:28Z"},{"kind":"news","domain":"u.today","votes":{"negative":0,"positive":1,"important":0,"liked":0,"disliked":0,"lol":0,"toxic":0,"saved":0,"comments":0},"source":{"title":"U.Today","region":"en","domain":"u.today","path":null},"title":"Bitcoin Will Demonetize Gold, Says Michael Saylor","published_at":"2022-08-14T09:08:57Z","slug":"Bitcoin-Will-Demonetize-Gold-Says-Michael-Saylor","currencies":[{"code":"BTC","title":"Bitcoin","slug":"bitcoin","url":"https://cryptopanic.com/news/bitcoin/"}],"id":16047980,"url":"https://cryptopanic.com/news/16047980/Bitcoin-Will-Demonetize-Gold-Says-Michael-Saylor","created_at":"2022-08-14T09:08:57Z"},{"kind":"news","domain":"beincrypto.com","votes":{"negative":0,"positive":0,"important":0,"liked":1,"disliked":0,"lol":1,"toxic":0,"saved":0,"comments":1},"source":{"title":"BeInCrypto","region":"en","domain":"beincrypto.com","path":null},"title":"Martin Shkreli’s Druglike DAO Crypto Token Crashes Following an Alleged Hack","published_at":"2022-08-14T09:06:14Z","slug":"Martin-Shkrelis-Druglike-DAO-Crypto-Token-Crashes-Following-an-Alleged-Hack","id":16047964,"url":"https://cryptopanic.com/news/16047964/Martin-Shkrelis-Druglike-DAO-Crypto-Token-Crashes-Following-an-Alleged-Hack","created_at":"2022-08-14T09:06:14Z"},{"kind":"news","domain":"cryptoglobe.com","votes":{"negative":1,"positive":0,"important":0,"liked":0,"disliked":0,"lol":0,"toxic":0,"saved":0,"comments":0},"source":{"title":"CryptoGlobe","region":"en","domain":"cryptoglobe.com","path":null},"title":"Ethereum Creator: ‘I Basically Expect That the Merge Is Going To Be Not Priced In’","published_at":"2022-08-14T08:36:22Z","slug":"Ethereum-Creator-I-Basically-Expect-That-the-Merge-Is-Going-To-Be-Not-Priced-In","currencies":[{"code":"ETH","title":"Ethereum","slug":"ethereum","url":"https://cryptopanic.com/news/ethereum/"}],"id":16047666,"url":"https://cryptopanic.com/news/16047666/Ethereum-Creator-I-Basically-Expect-That-the-Merge-Is-Going-To-Be-Not-Priced-In","created_at":"2022-08-14T08:36:22Z"},{"kind":"news","domain":"cointelegraph.com","source":{"title":"CoinTelegraph","region":"en","domain":"cointelegraph.com","path":null},"title":"Velodrome recovers $350K stolen funds from team member Gabagool","published_at":"2022-08-14T08:35:00Z","slug":"Velodrome-recovers-350K-stolen-funds-from-team-member-Gabagool","id":16047483,"url":"https://cryptopanic.com/news/16047483/Velodrome-recovers-350K-stolen-funds-from-team-member-Gabagool","created_at":"2022-08-14T08:35:00Z","votes":{"negative":0,"positive":0,"important":0,"liked":0,"disliked":0,"lol":0,"toxic":0,"saved":0,"comments":0}},{"kind":"news","domain":"u.today","votes":{"negative":1,"positive":0,"important":2,"liked":0,"disliked":1,"lol":0,"toxic":0,"saved":1,"comments":0},"source":{"title":"U.Today","region":"en","domain":"u.today","path":null},"title":"“DeFi Hub of Polkadot” Suffers Major Hack","published_at":"2022-08-14T07:46:53Z","slug":"DeFi-Hub-of-Polkadot-Suffers-Major-Hack","currencies":[{"code":"DOT","title":"Polkadot","slug":"polkadot","url":"https://cryptopanic.com/news/polkadot/"}],"id":16046792,"url":"https://cryptopanic.com/news/16046792/DeFi-Hub-of-Polkadot-Suffers-Major-Hack","created_at":"2022-08-14T07:46:53Z"},{"kind":"news","domain":"cryptoglobe.com","votes":{"negative":0,"positive":1,"important":0,"liked":1,"disliked":0,"lol":0,"toxic":0,"saved":1,"comments":0},"source":{"title":"CryptoGlobe","region":"en","domain":"cryptoglobe.com","path":null},"title":"SkyBridge Capital Founder Is Very Bullish on Bitcoin, Ethereum, Solana, and Algorand","published_at":"2022-08-14T07:39:46Z","slug":"SkyBridge-Capital-Founder-Is-Very-Bullish-on-Bitcoin-Ethereum-Solana-and-Algorand","currencies":[{"code":"BTC","title":"Bitcoin","slug":"bitcoin","url":"https://cryptopanic.com/news/bitcoin/"},{"code":"ETH","title":"Ethereum","slug":"ethereum","url":"https://cryptopanic.com/news/ethereum/"},{"code":"ALGO","title":"Algorand","slug":"algorand","url":"https://cryptopanic.com/news/algorand/"}],"id":16046783,"url":"https://cryptopanic.com/news/16046783/SkyBridge-Capital-Founder-Is-Very-Bullish-on-Bitcoin-Ethereum-Solana-and-Algorand","created_at":"2022-08-14T07:39:46Z"},{"kind":"news","domain":"dailyhodl.com","votes":{"negative":1,"positive":1,"important":1,"liked":0,"disliked":0,"lol":1,"toxic":0,"saved":0,"comments":0},"source":{"title":"The Daily Hodl","region":"en","domain":"dailyhodl.com","path":null},"title":"Crypto Strategist Says One Ethereum Rival Is Preparing for Liftoff, With Bitcoin (BTC) Bottom Likely In","published_at":"2022-08-14T07:04:52Z","slug":"Crypto-Strategist-Says-One-Ethereum-Rival-Is-Preparing-for-Liftoff-With-Bitcoin-BTC-Bottom-Likely-In","currencies":[{"code":"BTC","title":"Bitcoin","slug":"bitcoin","url":"https://cryptopanic.com/news/bitcoin/"},{"code":"ETH","title":"Ethereum","slug":"ethereum","url":"https://cryptopanic.com/news/ethereum/"},{"code":"SOL","title":"Solana","slug":"solana","url":"https://cryptopanic.com/news/solana/"}],"id":16046109,"url":"https://cryptopanic.com/news/16046109/Crypto-Strategist-Says-One-Ethereum-Rival-Is-Preparing-for-Liftoff-With-Bitcoin-BTC-Bottom-Likely-In","created_at":"2022-08-14T07:04:52Z"},{"kind":"news","domain":"newsbtc.com","votes":{"negative":3,"positive":3,"important":0,"liked":3,"disliked":2,"lol":0,"toxic":0,"saved":0,"comments":0},"source":{"title":"NewsBTC","region":"en","domain":"newsbtc.com","path":null},"title":"Polkadot (DOT) To Retest $9.88 Resistance – Can Bulls Regain Solid Footing?","published_at":"2022-08-14T06:40:30Z","slug":"Polkadot-DOT-To-Retest-988-Resistance-Can-Bulls-Regain-Solid-Footing","currencies":[{"code":"BTC","title":"Bitcoin","slug":"bitcoin","url":"https://cryptopanic.com/news/bitcoin/"},{"code":"DOT","title":"Polkadot","slug":"polkadot","url":"https://cryptopanic.com/news/polkadot/"},{"code":"FIL","title":"Filecoin","slug":"filecoin","url":"https://cryptopanic.com/news/filecoin/"},{"code":"MANA","title":"Decentraland","slug":"decentraland","url":"https://cryptopanic.com/news/decentraland/"}],"id":16045778,"url":"https://cryptopanic.com/news/16045778/Polkadot-DOT-To-Retest-988-Resistance-Can-Bulls-Regain-Solid-Footing","created_at":"2022-08-14T06:40:30Z"},{"kind":"news","domain":"ambcrypto.com","source":{"title":"AMBCrypto","region":"en","domain":"ambcrypto.com","path":null},"title":"How long until TRX investors notice what the altcoin is missing out on","published_at":"2022-08-14T06:30:33Z","slug":"How-long-until-TRX-investors-notice-what-the-altcoin-is-missing-out-on","currencies":[{"code":"TRX","title":"TRON","slug":"tron","url":"https://cryptopanic.com/news/tron/"}],"id":16045624,"url":"https://cryptopanic.com/news/16045624/How-long-until-TRX-investors-notice-what-the-altcoin-is-missing-out-on","created_at":"2022-08-14T06:30:33Z","votes":{"negative":0,"positive":0,"important":0,"liked":0,"disliked":0,"lol":0,"toxic":0,"saved":0,"comments":0}},{"kind":"news","domain":"cointelegraph.com","votes":{"negative":1,"positive":0,"important":1,"liked":0,"disliked":2,"lol":0,"toxic":0,"saved":0,"comments":0},"source":{"title":"CoinTelegraph","region":"en","domain":"cointelegraph.com","path":null},"title":"BlueBenx fires employees, halts funds withdrawal citing $32M hack","published_at":"2022-08-14T05:18:00Z","slug":"BlueBenx-fires-employees-halts-funds-withdrawal-citing-32M-hack","id":16044658,"url":"https://cryptopanic.com/news/16044658/BlueBenx-fires-employees-halts-funds-withdrawal-citing-32M-hack","created_at":"2022-08-14T05:18:00Z"},{"kind":"news","domain":"ambcrypto.com","votes":{"negative":0,"positive":1,"important":1,"liked":2,"disliked":0,"lol":0,"toxic":0,"saved":0,"comments":0},"source":{"title":"AMBCrypto","region":"en","domain":"ambcrypto.com","path":null},"title":"Can MATIC really leverage the hype around Ethereum for more upside?","published_at":"2022-08-14T03:30:39Z","slug":"Can-MATIC-really-leverage-the-hype-around-Ethereum-for-more-upside","currencies":[{"code":"ETH","title":"Ethereum","slug":"ethereum","url":"https://cryptopanic.com/news/ethereum/"},{"code":"MATIC","title":"Polygon","slug":"matic-network","url":"https://cryptopanic.com/news/matic-network/"}],"id":16044562,"url":"https://cryptopanic.com/news/16044562/Can-MATIC-really-leverage-the-hype-around-Ethereum-for-more-upside","created_at":"2022-08-14T03:30:39Z"},{"kind":"news","domain":"cryptopotato.com","votes":{"negative":1,"positive":11,"important":5,"liked":9,"disliked":1,"lol":3,"toxic":0,"saved":0,"comments":3},"source":{"title":"Feed - Cryptopotato.Com","region":"en","domain":"cryptopotato.com","path":null},"title":"Spain and France’s Inflation Rate Highest in Four Decades","published_at":"2022-08-14T00:19:46Z","slug":"Spain-and-Frances-Inflation-Rate-Highest-in-Four-Decades","id":16044350,"url":"https://cryptopanic.com/news/16044350/Spain-and-Frances-Inflation-Rate-Highest-in-Four-Decades","created_at":"2022-08-14T00:19:46Z"}]}